Flight,Category,Country,Cost,Nest
EGKK_LEZL,Initial,GBP United Kingdom,140.52,193.5765
EGKK_LEZL,Initial,France,501.59,537.3588
EGKK_LEZL,Initial,Spain Continental,590.44,677.0631
EGKK_LEZL,Initial,Total,1231,1407.9984
EGKK_LEZL,Actual,GBP United Kingdom,141.11,193.5801
EGKK_LEZL,Actual,France,501.22,537.36
EGKK_LEZL,Actual,Spain Continental,590.44,677.0604
EGKK_LEZL,Actual,Total,1232,1408.0005
