Flight,Category,Country,Cost,Nest
LSGG_EGLL,Initial,France,454.57,492.616
LSGG_EGLL,Initial,GBP United Kingdom,119.6,155.9309
LSGG_EGLL,Initial,Total,573,648.5469
LSGG_EGLL,Actual,France,454.57,492.616
LSGG_EGLL,Actual,GBP United Kingdom,119.6,155.9309
LSGG_EGLL,Actual,Total,573,648.5469
