Flight,Category,Country,Cost,Nest
LFML_EGLL,Initial,France,643.33,691.3938
LFML_EGLL,Initial,GBP United Kingdom,119.6,155.9309
LFML_EGLL,Initial,Total,762,847.3247
LFML_EGLL,Actual,France,643.32,691.3937
LFML_EGLL,Actual,GBP United Kingdom,119.6,155.931
LFML_EGLL,Actual,Total,762,847.3247
