Flight,Category,Country,Cost,Nest
ESGG_EGLL,Initial,Sweden,50.56,31.1938
ESGG_EGLL,Initial,Denmark,319.31,355.3734
ESGG_EGLL,Initial,GBP United Kingdom,413.58,617.1283
ESGG_EGLL,Initial,Total,782,1003.6955
ESGG_EGLL,Actual,Sweden,50.56,31.1945
ESGG_EGLL,Actual,Denmark,319.31,355.3737
ESGG_EGLL,Actual,GBP United Kingdom,413.58,617.1283
ESGG_EGLL,Actual,Total,782,1003.6965
