Flight,Category,Country,Cost,Nest
EGKK_LIRN,Initial,GBP United Kingdom,114.17,153.6014
EGKK_LIRN,Initial,Belg.-Luxembourg,264.71,252.7513
EGKK_LIRN,Initial,Austria,43.71,49.3213
EGKK_LIRN,Initial,Italy,709.64,698.2754
EGKK_LIRN,Initial,Total,1130,1153.9494
EGKK_LIRN,Actual,GBP United Kingdom,114.17,153.6012
EGKK_LIRN,Actual,Belg.-Luxembourg,15.63,218.005
EGKK_LIRN,Actual,Austria,43.71,49.3213
EGKK_LIRN,Actual,Italy,709.64,698.2754
EGKK_LIRN,Actual,Total,881,1119.2029
