Flight,Category,Country,Cost
EGCC_LEPA,Initial,GBP United Kingdom,298.97
EGCC_LEPA,Initial,France,662.19
EGCC_LEPA,Initial,Spain Continental,243.23
EGCC_LEPA,Initial,Total,1203
EGCC_LEPA,Actual,GBP United Kingdom,298.97
EGCC_LEPA,Actual,France,662.19
EGCC_LEPA,Actual,Spain Continental,243.23
EGCC_LEPA,Actual,Total,1203
