Flight,Category,Country,Cost
LFMN_EHAM,Initial,France,14.1
LFMN_EHAM,Initial,Italy,294.15
LFMN_EHAM,Initial,Switzerland,232.85
LFMN_EHAM,Initial,Germany,419.58
LFMN_EHAM,Initial,Netherlands,107.5
LFMN_EHAM,Initial,Total,1066
LFMN_EHAM,Actual,France,13.58
LFMN_EHAM,Actual,Italy,295.76
LFMN_EHAM,Actual,Switzerland,231.57
LFMN_EHAM,Actual,Germany,415.85
LFMN_EHAM,Actual,Netherlands,100.45
LFMN_EHAM,Actual,Total,1054
