Flight,Category,Country,Cost
LFPG_EDDH,Initial,France,134.11
LFPG_EDDH,Initial,Belg.-Luxembourg,78.02
LFPG_EDDH,Initial,Netherlands,223.12
LFPG_EDDH,Initial,Germany,150.96
LFPG_EDDH,Initial,Total,585
LFPG_EDDH,Actual,France,138.68
LFPG_EDDH,Actual,Belg.-Luxembourg,123.46
LFPG_EDDH,Actual,Netherlands,186.61
LFPG_EDDH,Actual,Germany,150.96
LFPG_EDDH,Actual,Total,597
