Flight,Category,Country,Cost
EDDL_LEMG,Initial,Germany,333.76
EDDL_LEMG,Initial,Switzerland,215.57
EDDL_LEMG,Initial,France,500.14
EDDL_LEMG,Initial,Spain Continental,585.44
EDDL_LEMG,Initial,Total,1633
EDDL_LEMG,Actual,Germany,335.79
EDDL_LEMG,Actual,Switzerland,206.79
EDDL_LEMG,Actual,France,488.11
EDDL_LEMG,Actual,Spain Continental,589.78
EDDL_LEMG,Actual,Total,1618
