Flight,Category,Country,Cost
LEMG_EGGW,FlightRoute,Spain Continental,612.6
LEMG_EGGW,FlightRoute,France,541.58
LEMG_EGGW,FlightRoute,GBP United Kingdom,157.96
LEMG_EGGW,FlightRoute,Total,1310
LEMG_EGGW,Hoja1,Spain Continental,612.6
LEMG_EGGW,Hoja1,France,541.58
LEMG_EGGW,Hoja1,GBP United Kingdom,157.96
LEMG_EGGW,Hoja1,Total,1310
