Flight,Category,Country,Cost
EDDM_LEPA,Initial,Germany,410.0
EDDM_LEPA,Initial,Austria,43.71
EDDM_LEPA,Initial,Italy,422.29
EDDM_LEPA,Initial,France,365.57
EDDM_LEPA,Initial,Spain Continental,123.51
EDDM_LEPA,Initial,Total,1363
EDDM_LEPA,Actual,Germany,169.91
EDDM_LEPA,Actual,Switzerland,2.05
EDDM_LEPA,Actual,France,375.28
EDDM_LEPA,Actual,Spain Continental,234.89
EDDM_LEPA,Actual,Total,780
