Flight,Category,Country,Cost
LEAL_EGGD,Initial,Spain Continental,537.31
LEAL_EGGD,Initial,France,466.75
LEAL_EGGD,Initial,GBP United Kingdom,152.97
LEAL_EGGD,Initial,Total,1155
LEAL_EGGD,Actual,Spain Continental,528.33
LEAL_EGGD,Actual,France,476.1
LEAL_EGGD,Actual,GBP United Kingdom,146.71
LEAL_EGGD,Actual,Total,1150
