Flight,Category,Country,Cost
LEPA_EDLP,Initial,Spain Continental,113.93
LEPA_EDLP,Initial,France,394.18
LEPA_EDLP,Initial,Italy,317.46
LEPA_EDLP,Initial,Switzerland,227.86
LEPA_EDLP,Initial,Germany,349.88
LEPA_EDLP,Initial,Total,1400
LEPA_EDLP,Actual,Spain Continental,113.93
LEPA_EDLP,Actual,France,385.45
LEPA_EDLP,Actual,Italy,314.02
LEPA_EDLP,Actual,Switzerland,230.8
LEPA_EDLP,Actual,Germany,351.31
LEPA_EDLP,Actual,Total,1393
