Flight,Category,Country,Cost
LEAL_EGKK,Initial,Spain Continental,487.16
LEAL_EGKK,Initial,France,535.3
LEAL_EGKK,Initial,GBP United Kingdom,117.83
LEAL_EGKK,Initial,Total,1139
LEAL_EGKK,Actual,Spain Continental,487.16
LEAL_EGKK,Actual,France,535.3
LEAL_EGKK,Actual,GBP United Kingdom,117.83
LEAL_EGKK,Actual,Total,1139
