Flight,Category,Country,Cost
EGKK_LFPG,Initial,GBP United Kingdom,89.52
EGKK_LFPG,Initial,France,143.97
EGKK_LFPG,Initial,Total,232
EGKK_LFPG,Actual,GBP United Kingdom,89.52
EGKK_LFPG,Actual,France,143.97
EGKK_LFPG,Actual,Total,232
