Flight,Category,Country,Cost
LEST_EHAM,Initial,Spain Continental,513.2
LEST_EHAM,Initial,France,682.65
LEST_EHAM,Initial,Switzerland,47.85
LEST_EHAM,Initial,Belg.-Luxembourg,222.73
LEST_EHAM,Initial,Netherlands,91.42
LEST_EHAM,Initial,Total,1555
LEST_EHAM,Actual,Spain Continental,479.66
LEST_EHAM,Actual,France,691.12
LEST_EHAM,Actual,Switzerland,47.85
LEST_EHAM,Actual,Belg.-Luxembourg,222.74
LEST_EHAM,Actual,Netherlands,91.41
LEST_EHAM,Actual,Total,1530
