Flight,Category,Country,Cost
LEBL_EGKK,Initial,Spain Continental,154.36
LEBL_EGKK,Initial,France,641.99
LEBL_EGKK,Initial,Italy,23.29
LEBL_EGKK,Initial,Switzerland,48.25
LEBL_EGKK,Initial,Belg.-Luxembourg,278.26
LEBL_EGKK,Initial,Netherlands,28.82
LEBL_EGKK,Initial,GBP United Kingdom,121.57
LEBL_EGKK,Initial,Total,1293
LEBL_EGKK,Actual,Spain Continental,154.36
LEBL_EGKK,Actual,France,641.99
LEBL_EGKK,Actual,Italy,23.29
LEBL_EGKK,Actual,Switzerland,71.43
LEBL_EGKK,Actual,Belg.-Luxembourg,278.25
LEBL_EGKK,Actual,Netherlands,28.83
LEBL_EGKK,Actual,GBP United Kingdom,121.57
LEBL_EGKK,Actual,Total,1316
