Flight,Category,Country,Cost
EGKK_LIRN,Initial,GBP United Kingdom,114.17
EGKK_LIRN,Initial,Belg.-Luxembourg,264.71
EGKK_LIRN,Initial,Germany,0.2
EGKK_LIRN,Initial,Austria,43.71
EGKK_LIRN,Initial,Italy,709.64
EGKK_LIRN,Initial,Total,1130
EGKK_LIRN,Actual,GBP United Kingdom,114.17
EGKK_LIRN,Actual,Belg.-Luxembourg,15.63
EGKK_LIRN,Actual,Germany,0.2
EGKK_LIRN,Actual,Austria,43.71
EGKK_LIRN,Actual,Italy,709.64
EGKK_LIRN,Actual,Total,881
