Flight,Category,Country,Cost
EGKK_LIMJ,Initial,GBP United Kingdom,114.17
EGKK_LIMJ,Initial,Belg.-Luxembourg,264.71
EGKK_LIMJ,Initial,Germany,271.24
EGKK_LIMJ,Initial,Switzerland,199.56
EGKK_LIMJ,Initial,Italy,177.88
EGKK_LIMJ,Initial,Total,1025
EGKK_LIMJ,Actual,GBP United Kingdom,114.17
EGKK_LIMJ,Actual,Belg.-Luxembourg,264.71
EGKK_LIMJ,Actual,Germany,271.25
EGKK_LIMJ,Actual,Switzerland,196.52
EGKK_LIMJ,Actual,Italy,180.32
EGKK_LIMJ,Actual,Total,1025
