Flight,Category,Country,Cost
LEBL_EGLL,Initial,Spain Continental,132.97
LEBL_EGLL,Initial,France,639.43
LEBL_EGLL,Initial,GBP United Kingdom,138.73
LEBL_EGLL,Initial,Total,909
LEBL_EGLL,Actual,Spain Continental,133.07
LEBL_EGLL,Actual,France,639.35
LEBL_EGLL,Actual,GBP United Kingdom,138.73
LEBL_EGLL,Actual,Total,910
