Flight,Category,Country,Cost
EGLL_EDDF,Initial,GBP United Kingdom,131.04
EGLL_EDDF,Initial,Belg.-Luxembourg,268.31
EGLL_EDDF,Initial,Germany,129.69
EGLL_EDDF,Initial,Total,528
EGLL_EDDF,Actual,GBP United Kingdom,131.04
EGLL_EDDF,Actual,Belg.-Luxembourg,268.31
EGLL_EDDF,Actual,Germany,129.69
EGLL_EDDF,Actual,Total,528
