Flight,Category,Country,Cost
LIRN_EDDM,Initial,Italy,699.77
LIRN_EDDM,Initial,Austria,43.93
LIRN_EDDM,Initial,Germany,86.22
LIRN_EDDM,Initial,Total,828
LIRN_EDDM,Actual,Italy,699.77
LIRN_EDDM,Actual,Austria,43.93
LIRN_EDDM,Actual,Germany,86.22
LIRN_EDDM,Actual,Total,828
