Flight,Category,Country,Cost
LFMN_EDDM,Initial,France,13.92
LFMN_EDDM,Initial,Italy,437.44
LFMN_EDDM,Initial,Austria,60.54
LFMN_EDDM,Initial,Germany,91.66
LFMN_EDDM,Initial,Total,601
LFMN_EDDM,Actual,France,14.1
LFMN_EDDM,Actual,Italy,465.82
LFMN_EDDM,Actual,Austria,40.79
LFMN_EDDM,Actual,Germany,87.37
LFMN_EDDM,Actual,Total,606
