Flight,Category,Country,Cost
LFMN_EDDF,Initial,France,13.92
LFMN_EDDF,Initial,Italy,294.68
LFMN_EDDF,Initial,Switzerland,231.74
LFMN_EDDF,Initial,Germany,210.44
LFMN_EDDF,Initial,Total,748
LFMN_EDDF,Actual,France,13.93
LFMN_EDDF,Actual,Italy,294.67
LFMN_EDDF,Actual,Switzerland,231.74
LFMN_EDDF,Actual,Germany,210.44
LFMN_EDDF,Actual,Total,748
