Flight,Category,Country,Cost
LIRF_EDDM,Initial,Italy,566.34
LIRF_EDDM,Initial,Austria,43.93
LIRF_EDDM,Initial,Germany,86.22
LIRF_EDDM,Initial,Total,695
LIRF_EDDM,Actual,Italy,566.34
LIRF_EDDM,Actual,Austria,43.93
LIRF_EDDM,Actual,Germany,86.21
LIRF_EDDM,Actual,Total,695
