Flight,Category,Country,Cost
EDDM_LFPG,Initial,Germany,348.93
EDDM_LFPG,Initial,Belg.-Luxembourg,62.59
EDDM_LFPG,Initial,France,161.11
EDDM_LFPG,Initial,Total,571
EDDM_LFPG,Actual,Germany,348.93
EDDM_LFPG,Actual,Belg.-Luxembourg,62.59
EDDM_LFPG,Actual,France,161.11
EDDM_LFPG,Actual,Total,571
