Flight,Category,Country,Cost
EDDM_LOWW,Initial,Germany,88.12
EDDM_LOWW,Initial,Austria,208.24
EDDM_LOWW,Initial,Total,296
EDDM_LOWW,Actual,Germany,88.12
EDDM_LOWW,Actual,Austria,208.25
EDDM_LOWW,Actual,Total,296
