Flight,Category,Country,Cost
LFBO_EDDF,Initial,France,396.27
LFBO_EDDF,Initial,Switzerland,250.99
LFBO_EDDF,Initial,Germany,210.44
LFBO_EDDF,Initial,Total,856
LFBO_EDDF,Actual,France,396.27
LFBO_EDDF,Actual,Switzerland,227.69
LFBO_EDDF,Actual,Germany,102.67
LFBO_EDDF,Actual,Total,725
