lat,lon
41.29694444444444,2.0783333333333336
41.25527777777778,2.063055555555555
41.230000000000004,2.053888888888889
41.205000000000005,2.044722222222222
41.18833333333333,2.038611111111111
41.163333333333334,2.027222222222222
41.11333333333334,2.0044444444444443
41.07166666666667,1.9855555555555555
41.05361111111111,2.0125
40.99944444444444,2.0933333333333333
40.939166666666665,2.1830555555555553
40.86083333333333,2.299722222222222
40.91305555555555,2.3925
40.995555555555555,2.5355555555555553
41.08888888888889,2.6975000000000002
41.14388888888889,2.792777777777778
41.54472222222222,3.488611111111111
41.56361111111111,3.604722222222222
41.605555555555554,3.8602777777777777
41.611111111111114,3.8958333333333335
41.64138888888889,4.085555555555556
41.721944444444446,4.595555555555555
41.733333333333334,4.666666666666667
41.78944444444444,4.920833333333333
41.809999999999995,5.013333333333334
41.990833333333335,5.2125
42.157777777777774,5.39638888888889
42.43833333333333,5.709722222222222
42.853611111111114,6.180277777777778
43.21944444444445,6.601944444444444
43.346111111111114,6.841666666666667
43.373333333333335,6.893333333333333
43.549166666666665,7.23
43.62222222222222,7.3711111111111105
43.75694444444444,7.632777777777778
43.7675,7.6530555555555555
43.81944444444445,7.755277777777778
43.95111111111111,7.8966666666666665
45.908055555555556,8.909444444444444
46.15972222222222,9.042777777777777
46.410555555555554,9.009166666666667
46.60527777777778,8.983055555555556
46.88944444444444,8.944444444444445
47.156666666666666,8.9075
47.28972222222222,8.889166666666666
47.441111111111105,8.966944444444444
47.713055555555556,9.107777777777777
47.79,9.120555555555557
48.04416666666666,9.1625
48.166666666666664,9.182777777777778
48.61833333333333,9.259166666666667
49.61833333333333,9.414444444444445
50.066944444444445,9.486388888888888
50.528888888888886,9.561666666666667
50.5925,9.572222222222223
50.72916666666667,9.598333333333334
51.03472222222222,9.007777777777777
51.13361111111111,8.81388888888889
51.24638888888889,8.589722222222223
51.32555555555556,8.432777777777778
51.99138888888889,7.3694444444444445
52.10583333333334,7.183611111111111
52.150277777777774,7.1113888888888885
52.155833333333334,7.1
52.21,6.9875
52.21555555555556,6.976388888888889
52.23861111111111,6.930277777777778
52.2675,6.8725000000000005
52.33083333333334,6.745555555555556
52.39388888888889,6.618055555555556
52.45138888888889,6.501944444444445
52.468611111111116,6.467222222222222
52.474444444444444,6.348888888888888
52.48916666666667,6.053333333333333
52.49055555555556,6.023888888888889
52.49638888888889,5.8919444444444435
52.503055555555555,5.745277777777778
52.510555555555555,5.583888888888889
52.51111111111111,5.569166666666667
52.425,5.228055555555556
52.38722222222222,5.078055555555555
52.359722222222224,4.968888888888889
52.349444444444444,4.927777777777778
52.308055555555555,4.764166666666667
