Flight,Category,Country,Cost
LIMC_EDDL,Initial,Italy,60.05
LIMC_EDDL,Initial,Switzerland,201.87
LIMC_EDDL,Initial,Germany,346.34
LIMC_EDDL,Initial,Total,607
LIMC_EDDL,Actual,Italy,32.89
LIMC_EDDL,Actual,Switzerland,231.86
LIMC_EDDL,Actual,Germany,346.34
LIMC_EDDL,Actual,Total,609
