Flight,Category,Country,Cost
EDDN_LEPA,Initial,Germany,257.08
EDDN_LEPA,Initial,Switzerland,183.53
EDDN_LEPA,Initial,France,393.67
EDDN_LEPA,Initial,Spain Continental,234.89
EDDN_LEPA,Initial,Total,1067
EDDN_LEPA,Actual,Germany,234.98
EDDN_LEPA,Actual,Switzerland,210.39
EDDN_LEPA,Actual,France,393.67
EDDN_LEPA,Actual,Spain Continental,234.89
EDDN_LEPA,Actual,Total,1071
