Flight,Category,Country,Cost
LFMN_EDDS,Initial,France,12.88
LFMN_EDDS,Initial,Italy,303.26
LFMN_EDDS,Initial,Switzerland,232.85
LFMN_EDDS,Initial,Germany,89.98
LFMN_EDDS,Initial,Total,636
LFMN_EDDS,Actual,France,13.92
LFMN_EDDS,Actual,Italy,294.68
LFMN_EDDS,Actual,Switzerland,230.87
LFMN_EDDS,Actual,Germany,91.68
LFMN_EDDS,Actual,Total,628
