Flight,Category,Country,Cost
EDDM_LICC,Initial,Germany,68.47
EDDM_LICC,Initial,Austria,55.96
EDDM_LICC,Initial,Italy,1066.18
EDDM_LICC,Initial,Total,1189
EDDM_LICC,Actual,Germany,68.47
EDDM_LICC,Actual,Austria,55.61
EDDM_LICC,Actual,Italy,1066.31
EDDM_LICC,Actual,Total,1189
