Flight,Category,Country,Cost
EDDL_LEPA,Initial,Germany,410.0
EDDL_LEPA,Initial,Austria,43.71
EDDL_LEPA,Initial,Italy,422.29
EDDL_LEPA,Initial,France,365.57
EDDL_LEPA,Initial,Spain Continental,123.51
EDDL_LEPA,Initial,Total,1363
EDDL_LEPA,Actual,Germany,412.41
EDDL_LEPA,Actual,Austria,41.45
EDDL_LEPA,Actual,Italy,422.29
EDDL_LEPA,Actual,France,363.87
EDDL_LEPA,Actual,Spain Continental,124.68
EDDL_LEPA,Actual,Total,1362
